\relax 
\providecommand\hyper@newdestlabel[2]{}
\providecommand\HyperFirstAtBeginDocument{\AtBeginDocument}
\HyperFirstAtBeginDocument{\ifx\hyper@anchor\@undefined
\global\let\oldcontentsline\contentsline
\gdef\contentsline#1#2#3#4{\oldcontentsline{#1}{#2}{#3}}
\global\let\oldnewlabel\newlabel
\gdef\newlabel#1#2{\newlabelxx{#1}#2}
\gdef\newlabelxx#1#2#3#4#5#6{\oldnewlabel{#1}{{#2}{#3}}}
\AtEndDocument{\ifx\hyper@anchor\@undefined
\let\contentsline\oldcontentsline
\let\newlabel\oldnewlabel
\fi}
\fi}
\global\let\hyper@last\relax 
\gdef\HyperFirstAtBeginDocument#1{#1}
\providecommand\HyField@AuxAddToFields[1]{}
\providecommand\HyField@AuxAddToCoFields[2]{}
\select@language{english}
\@writefile{toc}{\select@language{english}}
\@writefile{lof}{\select@language{english}}
\@writefile{lot}{\select@language{english}}
\newlabel{index::doc}{{}{1}{}{section*.2}{}}
\@writefile{toc}{\contentsline {chapter}{\numberline {1}Introduction}{1}{chapter.1}}
\@writefile{lof}{\addvspace {10\p@ }}
\@writefile{lot}{\addvspace {10\p@ }}
\newlabel{01_introduction/index:introduction}{{1}{1}{Introduction}{chapter.1}{}}
\newlabel{01_introduction/index:introduction-index}{{1}{1}{Introduction}{chapter.1}{}}
\newlabel{01_introduction/index::doc}{{1}{1}{Introduction}{chapter.1}{}}
\newlabel{01_introduction/index:welcome-to-alignak-s-documentation}{{1}{1}{Introduction}{chapter.1}{}}
\@writefile{toc}{\contentsline {section}{\numberline {1.1}About GEP}{2}{section.1.1}}
\newlabel{01_introduction/introduction:introduction-introduction}{{1.1}{2}{About GEP}{section.1.1}{}}
\newlabel{01_introduction/introduction::doc}{{1.1}{2}{About GEP}{section.1.1}{}}
\newlabel{01_introduction/introduction:about-gep}{{1.1}{2}{About GEP}{section.1.1}{}}
\@writefile{toc}{\contentsline {section}{\numberline {1.2}Quick-Start}{2}{section.1.2}}
\newlabel{01_introduction/introduction:quick-start}{{1.2}{2}{Quick-Start}{section.1.2}{}}
\newlabel{01_introduction/introduction:introduction-quickstart}{{1.2}{2}{Quick-Start}{section.1.2}{}}
\@writefile{toc}{\contentsline {chapter}{\numberline {2}Installation}{5}{chapter.2}}
\@writefile{lof}{\addvspace {10\p@ }}
\@writefile{lot}{\addvspace {10\p@ }}
\newlabel{02_installation/index:installation}{{2}{5}{Installation}{chapter.2}{}}
\newlabel{02_installation/index::doc}{{2}{5}{Installation}{chapter.2}{}}
\newlabel{02_installation/index:installation-index}{{2}{5}{Installation}{chapter.2}{}}
\@writefile{toc}{\contentsline {section}{\numberline {2.1}Dependencies}{6}{section.2.1}}
\newlabel{02_installation/sources:dependencies}{{2.1}{6}{Dependencies}{section.2.1}{}}
\newlabel{02_installation/sources::doc}{{2.1}{6}{Dependencies}{section.2.1}{}}
\newlabel{02_installation/sources:installation-sources}{{2.1}{6}{Dependencies}{section.2.1}{}}
\@writefile{toc}{\contentsline {section}{\numberline {2.2}Installation}{6}{section.2.2}}
\newlabel{02_installation/sources:installation}{{2.2}{6}{Installation}{section.2.2}{}}
\@writefile{toc}{\contentsline {chapter}{\numberline {3}GEP functionality}{7}{chapter.3}}
\@writefile{lof}{\addvspace {10\p@ }}
\@writefile{lot}{\addvspace {10\p@ }}
\newlabel{03_how_it_work/index:how-it-works-index}{{3}{7}{GEP functionality}{chapter.3}{}}
\newlabel{03_how_it_work/index::doc}{{3}{7}{GEP functionality}{chapter.3}{}}
\newlabel{03_how_it_work/index:gep-functionality}{{3}{7}{GEP functionality}{chapter.3}{}}
\@writefile{toc}{\contentsline {section}{\numberline {3.1}Daemons and how they works together}{8}{section.3.1}}
\newlabel{03_how_it_work/daemons:daemons-and-how-they-works-together}{{3.1}{8}{Daemons and how they works together}{section.3.1}{}}
\newlabel{03_how_it_work/daemons:howitworks-daemons}{{3.1}{8}{Daemons and how they works together}{section.3.1}{}}
\newlabel{03_how_it_work/daemons::doc}{{3.1}{8}{Daemons and how they works together}{section.3.1}{}}
\@writefile{toc}{\contentsline {subsection}{\numberline {3.1.1}Daemons}{8}{subsection.3.1.1}}
\newlabel{03_how_it_work/daemons:daemons}{{3.1.1}{8}{Daemons}{subsection.3.1.1}{}}
\@writefile{toc}{\contentsline {subsubsection}{Arbiter}{8}{subsubsection*.3}}
\newlabel{03_how_it_work/daemons:arbiter}{{3.1.1}{8}{Arbiter}{subsubsection*.3}{}}
\@writefile{toc}{\contentsline {subsubsection}{Scheduler}{8}{subsubsection*.4}}
\newlabel{03_how_it_work/daemons:scheduler}{{3.1.1}{8}{Scheduler}{subsubsection*.4}{}}
\@writefile{toc}{\contentsline {subsubsection}{Poller}{8}{subsubsection*.5}}
\newlabel{03_how_it_work/daemons:poller}{{3.1.1}{8}{Poller}{subsubsection*.5}{}}
\@writefile{toc}{\contentsline {subsubsection}{Receiver}{8}{subsubsection*.6}}
\newlabel{03_how_it_work/daemons:receiver}{{3.1.1}{8}{Receiver}{subsubsection*.6}{}}
\@writefile{toc}{\contentsline {subsubsection}{Broker}{9}{subsubsection*.7}}
\newlabel{03_how_it_work/daemons:broker}{{3.1.1}{9}{Broker}{subsubsection*.7}{}}
\@writefile{toc}{\contentsline {subsubsection}{Reactionner}{9}{subsubsection*.8}}
\newlabel{03_how_it_work/daemons:reactionner}{{3.1.1}{9}{Reactionner}{subsubsection*.8}{}}
\@writefile{toc}{\contentsline {section}{\numberline {3.2}Usage}{9}{section.3.2}}
\newlabel{03_how_it_work/usage:usage}{{3.2}{9}{Usage}{section.3.2}{}}
\newlabel{03_how_it_work/usage:howitworks-usage}{{3.2}{9}{Usage}{section.3.2}{}}
\newlabel{03_how_it_work/usage::doc}{{3.2}{9}{Usage}{section.3.2}{}}
\@writefile{toc}{\contentsline {subsection}{\numberline {3.2.1}Feature selection}{9}{subsection.3.2.1}}
\newlabel{03_how_it_work/usage:feature-selection}{{3.2.1}{9}{Feature selection}{subsection.3.2.1}{}}
\@writefile{toc}{\contentsline {subsection}{\numberline {3.2.2}Predict}{10}{subsection.3.2.2}}
\newlabel{03_how_it_work/usage:predict}{{3.2.2}{10}{Predict}{subsection.3.2.2}{}}
\newlabel{03_how_it_work/usage:howitworks-predict}{{3.2.2}{10}{Predict}{subsection.3.2.2}{}}
\@writefile{toc}{\contentsline {subsection}{\numberline {3.2.3}Train and Predict GEP}{10}{subsection.3.2.3}}
\newlabel{03_how_it_work/usage:train-and-predict-gep}{{3.2.3}{10}{Train and Predict GEP}{subsection.3.2.3}{}}
\newlabel{03_how_it_work/usage:howitworks- tapg}{{3.2.3}{10}{Train and Predict GEP}{subsection.3.2.3}{}}
\@writefile{toc}{\contentsline {subsection}{\numberline {3.2.4}Train and Predict SVM}{11}{subsection.3.2.4}}
\newlabel{03_how_it_work/usage:train-and-predict-svm}{{3.2.4}{11}{Train and Predict SVM}{subsection.3.2.4}{}}
\newlabel{03_how_it_work/usage:howitworks-taps}{{3.2.4}{11}{Train and Predict SVM}{subsection.3.2.4}{}}
\@writefile{toc}{\contentsline {subsection}{\numberline {3.2.5}n-fold cross-validation}{12}{subsection.3.2.5}}
\newlabel{03_how_it_work/usage:howitworks-nf}{{3.2.5}{12}{n-fold cross-validation}{subsection.3.2.5}{}}
\newlabel{03_how_it_work/usage:n-fold-cross-validation}{{3.2.5}{12}{n-fold cross-validation}{subsection.3.2.5}{}}
\@writefile{toc}{\contentsline {subsection}{\numberline {3.2.6}Prepare genomewide prediction}{13}{subsection.3.2.6}}
\newlabel{03_how_it_work/usage:howitworks-pgp}{{3.2.6}{13}{Prepare genomewide prediction}{subsection.3.2.6}{}}
\newlabel{03_how_it_work/usage:prepare-genomewide-prediction}{{3.2.6}{13}{Prepare genomewide prediction}{subsection.3.2.6}{}}
\@writefile{toc}{\contentsline {subsection}{\numberline {3.2.7}Prepare training}{13}{subsection.3.2.7}}
\newlabel{03_how_it_work/usage:prepare-training}{{3.2.7}{13}{Prepare training}{subsection.3.2.7}{}}
\newlabel{03_how_it_work/usage:howitworks-pt}{{3.2.7}{13}{Prepare training}{subsection.3.2.7}{}}
\@writefile{toc}{\contentsline {subsubsection}{With sources and pip}{14}{subsubsection*.9}}
\newlabel{03_how_it_work/usage:with-sources-and-pip}{{3.2.7}{14}{With sources and pip}{subsubsection*.9}{}}
\@writefile{toc}{\contentsline {section}{\numberline {3.3}Predict only}{15}{section.3.3}}
\newlabel{03_how_it_work/predict_only:predict-only}{{3.3}{15}{Predict only}{section.3.3}{}}
\newlabel{03_how_it_work/predict_only::doc}{{3.3}{15}{Predict only}{section.3.3}{}}
\newlabel{03_how_it_work/predict_only:howitworks-predict-only}{{3.3}{15}{Predict only}{section.3.3}{}}
\@writefile{toc}{\contentsline {subsection}{\numberline {3.3.1}OutPut}{15}{subsection.3.3.1}}
\newlabel{03_how_it_work/predict_only:output}{{3.3.1}{15}{OutPut}{subsection.3.3.1}{}}
\@writefile{toc}{\contentsline {section}{\numberline {3.4}Train and Predict}{15}{section.3.4}}
\newlabel{03_how_it_work/train_and_predict:howitworks-train-and-predict}{{3.4}{15}{Train and Predict}{section.3.4}{}}
\newlabel{03_how_it_work/train_and_predict:train-and-predict}{{3.4}{15}{Train and Predict}{section.3.4}{}}
\newlabel{03_how_it_work/train_and_predict::doc}{{3.4}{15}{Train and Predict}{section.3.4}{}}
\@writefile{toc}{\contentsline {subsection}{\numberline {3.4.1}Train}{15}{subsection.3.4.1}}
\newlabel{03_how_it_work/train_and_predict:train}{{3.4.1}{15}{Train}{subsection.3.4.1}{}}
\@writefile{toc}{\contentsline {subsection}{\numberline {3.4.2}Predict}{16}{subsection.3.4.2}}
\newlabel{03_how_it_work/train_and_predict:predict}{{3.4.2}{16}{Predict}{subsection.3.4.2}{}}
\@writefile{toc}{\contentsline {section}{\numberline {3.5}nFold cross-validation}{16}{section.3.5}}
\newlabel{03_how_it_work/nFold:nfold-cross-validation}{{3.5}{16}{nFold cross-validation}{section.3.5}{}}
\newlabel{03_how_it_work/nFold::doc}{{3.5}{16}{nFold cross-validation}{section.3.5}{}}
\newlabel{03_how_it_work/nFold:howitworks-n-fold}{{3.5}{16}{nFold cross-validation}{section.3.5}{}}
\@writefile{toc}{\contentsline {subsection}{\numberline {3.5.1}Usage}{16}{subsection.3.5.1}}
\newlabel{03_how_it_work/nFold:usage}{{3.5.1}{16}{Usage}{subsection.3.5.1}{}}
\@writefile{toc}{\contentsline {subsection}{\numberline {3.5.2}Output}{16}{subsection.3.5.2}}
\newlabel{03_how_it_work/nFold:output}{{3.5.2}{16}{Output}{subsection.3.5.2}{}}
\@writefile{toc}{\contentsline {section}{\numberline {3.6}Enrichment analysis}{16}{section.3.6}}
\newlabel{03_how_it_work/enrichment_analysis:howitworks-enrichment}{{3.6}{16}{Enrichment analysis}{section.3.6}{}}
\newlabel{03_how_it_work/enrichment_analysis::doc}{{3.6}{16}{Enrichment analysis}{section.3.6}{}}
\newlabel{03_how_it_work/enrichment_analysis:enrichment-analysis}{{3.6}{16}{Enrichment analysis}{section.3.6}{}}
\@writefile{toc}{\contentsline {subsection}{\numberline {3.6.1}Overlap with enhancers}{17}{subsection.3.6.1}}
\newlabel{03_how_it_work/enrichment_analysis:overlap-with-enhancers}{{3.6.1}{17}{Overlap with enhancers}{subsection.3.6.1}{}}
\@writefile{toc}{\contentsline {subsection}{\numberline {3.6.2}Enrichment test}{17}{subsection.3.6.2}}
\newlabel{03_how_it_work/enrichment_analysis:enrichment-test}{{3.6.2}{17}{Enrichment test}{subsection.3.6.2}{}}
\@writefile{toc}{\contentsline {subsection}{\numberline {3.6.3}Output}{17}{subsection.3.6.3}}
\newlabel{03_how_it_work/enrichment_analysis:output}{{3.6.3}{17}{Output}{subsection.3.6.3}{}}
\@writefile{toc}{\contentsline {section}{\numberline {3.7}Accessary programs}{17}{section.3.7}}
\newlabel{03_how_it_work/accessary_programs:accessary-programs}{{3.7}{17}{Accessary programs}{section.3.7}{}}
\newlabel{03_how_it_work/accessary_programs:howitworks-accessary-programs}{{3.7}{17}{Accessary programs}{section.3.7}{}}
\newlabel{03_how_it_work/accessary_programs::doc}{{3.7}{17}{Accessary programs}{section.3.7}{}}
\@writefile{toc}{\contentsline {subsection}{\numberline {3.7.1}Output}{18}{subsection.3.7.1}}
\newlabel{03_how_it_work/accessary_programs:output}{{3.7.1}{18}{Output}{subsection.3.7.1}{}}
\@writefile{toc}{\contentsline {chapter}{\numberline {4}Configuration}{19}{chapter.4}}
\@writefile{lof}{\addvspace {10\p@ }}
\@writefile{lot}{\addvspace {10\p@ }}
\newlabel{04_configuration/index:configuration-index}{{4}{19}{Configuration}{chapter.4}{}}
\newlabel{04_configuration/index:configuration}{{4}{19}{Configuration}{chapter.4}{}}
\newlabel{04_configuration/index::doc}{{4}{19}{Configuration}{chapter.4}{}}
\@writefile{toc}{\contentsline {section}{\numberline {4.1}Arbiter}{20}{section.4.1}}
\newlabel{04_configuration/arbiter:arbiter}{{4.1}{20}{Arbiter}{section.4.1}{}}
\newlabel{04_configuration/arbiter::doc}{{4.1}{20}{Arbiter}{section.4.1}{}}
\@writefile{toc}{\contentsline {subsection}{\numberline {4.1.1}Monitoring resources configuration}{20}{subsection.4.1.1}}
\newlabel{04_configuration/arbiter:monitoring-resources-configuration}{{4.1.1}{20}{Monitoring resources configuration}{subsection.4.1.1}{}}
\@writefile{toc}{\contentsline {subsection}{\numberline {4.1.2}External modules configuration}{20}{subsection.4.1.2}}
\newlabel{04_configuration/arbiter:external-modules-configuration}{{4.1.2}{20}{External modules configuration}{subsection.4.1.2}{}}
\@writefile{toc}{\contentsline {subsection}{\numberline {4.1.3}Monitoring objects configuration}{20}{subsection.4.1.3}}
\newlabel{04_configuration/arbiter:monitoring-objects-configuration}{{4.1.3}{20}{Monitoring objects configuration}{subsection.4.1.3}{}}
\@writefile{toc}{\contentsline {subsection}{\numberline {4.1.4}Daemons configuration}{21}{subsection.4.1.4}}
\newlabel{04_configuration/arbiter:daemons-configuration}{{4.1.4}{21}{Daemons configuration}{subsection.4.1.4}{}}
\@writefile{toc}{\contentsline {subsubsection}{Arbiter configuration}{21}{subsubsection*.10}}
\newlabel{04_configuration/arbiter:arbiter-configuration}{{4.1.4}{21}{Arbiter configuration}{subsubsection*.10}{}}
\@writefile{toc}{\contentsline {paragraph}{Definition Format}{21}{paragraph*.11}}
\newlabel{04_configuration/arbiter:definition-format}{{4.1.4}{21}{Definition Format}{paragraph*.11}{}}
\@writefile{toc}{\contentsline {paragraph}{Example Definition:}{21}{paragraph*.12}}
\newlabel{04_configuration/arbiter:example-definition}{{4.1.4}{21}{Example Definition:}{paragraph*.12}{}}
\@writefile{toc}{\contentsline {paragraph}{Variable Descriptions}{22}{paragraph*.13}}
\newlabel{04_configuration/arbiter:variable-descriptions}{{4.1.4}{22}{Variable Descriptions}{paragraph*.13}{}}
\@writefile{toc}{\contentsline {subsubsection}{Scheduler configuration}{22}{subsubsection*.14}}
\newlabel{04_configuration/arbiter:scheduler-configuration}{{4.1.4}{22}{Scheduler configuration}{subsubsection*.14}{}}
\@writefile{toc}{\contentsline {paragraph}{Definition Format}{22}{paragraph*.15}}
\newlabel{04_configuration/arbiter:id1}{{4.1.4}{22}{Definition Format}{paragraph*.15}{}}
\@writefile{toc}{\contentsline {paragraph}{Example Definition:}{23}{paragraph*.16}}
\newlabel{04_configuration/arbiter:id2}{{4.1.4}{23}{Example Definition:}{paragraph*.16}{}}
\@writefile{toc}{\contentsline {paragraph}{Variable Descriptions}{24}{paragraph*.17}}
\newlabel{04_configuration/arbiter:id3}{{4.1.4}{24}{Variable Descriptions}{paragraph*.17}{}}
\@writefile{toc}{\contentsline {subsubsection}{Broker configuration}{24}{subsubsection*.18}}
\newlabel{04_configuration/arbiter:broker-configuration}{{4.1.4}{24}{Broker configuration}{subsubsection*.18}{}}
\@writefile{toc}{\contentsline {paragraph}{Definition Format}{24}{paragraph*.19}}
\newlabel{04_configuration/arbiter:id4}{{4.1.4}{24}{Definition Format}{paragraph*.19}{}}
\@writefile{toc}{\contentsline {paragraph}{Example Definition:}{24}{paragraph*.20}}
\newlabel{04_configuration/arbiter:id5}{{4.1.4}{24}{Example Definition:}{paragraph*.20}{}}
\@writefile{toc}{\contentsline {paragraph}{Variable Descriptions}{25}{paragraph*.21}}
\newlabel{04_configuration/arbiter:id6}{{4.1.4}{25}{Variable Descriptions}{paragraph*.21}{}}
\@writefile{toc}{\contentsline {subsubsection}{Poller configuration}{25}{subsubsection*.22}}
\newlabel{04_configuration/arbiter:poller-configuration}{{4.1.4}{25}{Poller configuration}{subsubsection*.22}{}}
\@writefile{toc}{\contentsline {paragraph}{Definition Format}{25}{paragraph*.23}}
\newlabel{04_configuration/arbiter:id7}{{4.1.4}{25}{Definition Format}{paragraph*.23}{}}
\@writefile{toc}{\contentsline {paragraph}{Example Definition:}{26}{paragraph*.24}}
\newlabel{04_configuration/arbiter:id8}{{4.1.4}{26}{Example Definition:}{paragraph*.24}{}}
\@writefile{toc}{\contentsline {paragraph}{Variable Descriptions}{26}{paragraph*.25}}
\newlabel{04_configuration/arbiter:id9}{{4.1.4}{26}{Variable Descriptions}{paragraph*.25}{}}
\@writefile{toc}{\contentsline {subsubsection}{Reactionner configuration}{27}{subsubsection*.26}}
\newlabel{04_configuration/arbiter:reactionner-configuration}{{4.1.4}{27}{Reactionner configuration}{subsubsection*.26}{}}
\@writefile{toc}{\contentsline {paragraph}{Definition Format}{27}{paragraph*.27}}
\newlabel{04_configuration/arbiter:id10}{{4.1.4}{27}{Definition Format}{paragraph*.27}{}}
\@writefile{toc}{\contentsline {paragraph}{Example Definition:}{28}{paragraph*.28}}
\newlabel{04_configuration/arbiter:id11}{{4.1.4}{28}{Example Definition:}{paragraph*.28}{}}
\@writefile{toc}{\contentsline {paragraph}{Variable Descriptions}{28}{paragraph*.29}}
\newlabel{04_configuration/arbiter:id12}{{4.1.4}{28}{Variable Descriptions}{paragraph*.29}{}}
\@writefile{toc}{\contentsline {subsubsection}{Reaceiver configuration}{28}{subsubsection*.30}}
\newlabel{04_configuration/arbiter:reaceiver-configuration}{{4.1.4}{28}{Reaceiver configuration}{subsubsection*.30}{}}
\@writefile{toc}{\contentsline {paragraph}{Definition Format}{28}{paragraph*.31}}
\newlabel{04_configuration/arbiter:id13}{{4.1.4}{28}{Definition Format}{paragraph*.31}{}}
\@writefile{toc}{\contentsline {paragraph}{Example Definition:}{29}{paragraph*.32}}
\newlabel{04_configuration/arbiter:id14}{{4.1.4}{29}{Example Definition:}{paragraph*.32}{}}
\@writefile{toc}{\contentsline {paragraph}{Variable Descriptions}{29}{paragraph*.33}}
\newlabel{04_configuration/arbiter:id15}{{4.1.4}{29}{Variable Descriptions}{paragraph*.33}{}}
\@writefile{toc}{\contentsline {section}{\numberline {4.2}Daemons}{29}{section.4.2}}
\newlabel{04_configuration/daemons:daemons}{{4.2}{29}{Daemons}{section.4.2}{}}
\newlabel{04_configuration/daemons::doc}{{4.2}{29}{Daemons}{section.4.2}{}}
\newlabel{04_configuration/daemons:old-documentation}{{4.2}{29}{Daemons}{section.4.2}{}}
\@writefile{toc}{\contentsline {subsection}{\numberline {4.2.1}Ini files}{29}{subsection.4.2.1}}
\newlabel{04_configuration/daemons:ini-files}{{4.2.1}{29}{Ini files}{subsection.4.2.1}{}}
\@writefile{toc}{\contentsline {subsubsection}{Scheduler}{30}{subsubsection*.34}}
\newlabel{04_configuration/daemons:scheduler}{{4.2.1}{30}{Scheduler}{subsubsection*.34}{}}
\@writefile{toc}{\contentsline {subsubsection}{Poller}{30}{subsubsection*.35}}
\newlabel{04_configuration/daemons:poller}{{4.2.1}{30}{Poller}{subsubsection*.35}{}}
\@writefile{toc}{\contentsline {subsubsection}{Receiver}{31}{subsubsection*.36}}
\newlabel{04_configuration/daemons:receiver}{{4.2.1}{31}{Receiver}{subsubsection*.36}{}}
\@writefile{toc}{\contentsline {subsubsection}{Broker}{31}{subsubsection*.37}}
\newlabel{04_configuration/daemons:broker}{{4.2.1}{31}{Broker}{subsubsection*.37}{}}
\@writefile{toc}{\contentsline {subsubsection}{Reactionner}{32}{subsubsection*.38}}
\newlabel{04_configuration/daemons:reactionner}{{4.2.1}{32}{Reactionner}{subsubsection*.38}{}}
\@writefile{toc}{\contentsline {section}{\numberline {4.3}Modules}{32}{section.4.3}}
\newlabel{04_configuration/modules:modules}{{4.3}{32}{Modules}{section.4.3}{}}
\newlabel{04_configuration/modules::doc}{{4.3}{32}{Modules}{section.4.3}{}}
\@writefile{toc}{\contentsline {subsection}{\numberline {4.3.1}Alignak modules (official way)}{32}{subsection.4.3.1}}
\newlabel{04_configuration/modules:alignak-modules-official-way}{{4.3.1}{32}{Alignak modules (official way)}{subsection.4.3.1}{}}
\@writefile{toc}{\contentsline {subsection}{\numberline {4.3.2}Shinken modules}{32}{subsection.4.3.2}}
\newlabel{04_configuration/modules:shinken-modules}{{4.3.2}{32}{Shinken modules}{subsection.4.3.2}{}}
\@writefile{toc}{\contentsline {chapter}{\numberline {5}How to contribute}{33}{chapter.5}}
\@writefile{lof}{\addvspace {10\p@ }}
\@writefile{lot}{\addvspace {10\p@ }}
\newlabel{14_contributing/index:contributing-index}{{5}{33}{How to contribute}{chapter.5}{}}
\newlabel{14_contributing/index::doc}{{5}{33}{How to contribute}{chapter.5}{}}
\newlabel{14_contributing/index:how-to-contribute}{{5}{33}{How to contribute}{chapter.5}{}}
\@writefile{toc}{\contentsline {section}{\numberline {5.1}Links to know}{34}{section.5.1}}
\newlabel{14_contributing/links-to-know:contributing-links-to-know}{{5.1}{34}{Links to know}{section.5.1}{}}
\newlabel{14_contributing/links-to-know:links-to-know}{{5.1}{34}{Links to know}{section.5.1}{}}
\newlabel{14_contributing/links-to-know::doc}{{5.1}{34}{Links to know}{section.5.1}{}}
\@writefile{toc}{\contentsline {section}{\numberline {5.2}Getting Help and Ways to Contribute}{34}{section.5.2}}
\newlabel{14_contributing/how-to-contribute:getting-help-and-ways-to-contribute}{{5.2}{34}{Getting Help and Ways to Contribute}{section.5.2}{}}
\newlabel{14_contributing/how-to-contribute:contribgithub}{{5.2}{34}{Getting Help and Ways to Contribute}{section.5.2}{}}
\newlabel{14_contributing/how-to-contribute::doc}{{5.2}{34}{Getting Help and Ways to Contribute}{section.5.2}{}}
\newlabel{14_contributing/how-to-contribute:contributing-how-to-contribute}{{5.2}{34}{Getting Help and Ways to Contribute}{section.5.2}{}}
\@writefile{toc}{\contentsline {subsection}{\numberline {5.2.1}Setup environment for Alignak}{34}{subsection.5.2.1}}
\newlabel{14_contributing/how-to-contribute:setup-environment-for-alignak}{{5.2.1}{34}{Setup environment for Alignak}{subsection.5.2.1}{}}
\@writefile{toc}{\contentsline {subsection}{\numberline {5.2.2}Getting started into the developer documentation}{34}{subsection.5.2.2}}
\newlabel{14_contributing/how-to-contribute:getting-started-into-the-developer-documentation}{{5.2.2}{34}{Getting started into the developer documentation}{subsection.5.2.2}{}}
\@writefile{toc}{\contentsline {subsection}{\numberline {5.2.3}Git and GitHub 101}{34}{subsection.5.2.3}}
\newlabel{14_contributing/how-to-contribute:git-and-github-101}{{5.2.3}{34}{Git and GitHub 101}{subsection.5.2.3}{}}
\@writefile{toc}{\contentsline {subsection}{\numberline {5.2.4}Bug report}{35}{subsection.5.2.4}}
\newlabel{14_contributing/how-to-contribute:bug-report}{{5.2.4}{35}{Bug report}{subsection.5.2.4}{}}
\@writefile{toc}{\contentsline {subsection}{\numberline {5.2.5}Step by step contribution example :}{35}{subsection.5.2.5}}
\newlabel{14_contributing/how-to-contribute:step-by-step-contribution-example}{{5.2.5}{35}{Step by step contribution example :}{subsection.5.2.5}{}}
\@writefile{toc}{\contentsline {subsubsection}{Simple fix}{35}{subsubsection*.39}}
\newlabel{14_contributing/how-to-contribute:simple-fix}{{5.2.5}{35}{Simple fix}{subsubsection*.39}{}}
\@writefile{toc}{\contentsline {subsubsection}{Not so simple fix}{36}{subsubsection*.40}}
\newlabel{14_contributing/how-to-contribute:not-so-simple-fix}{{5.2.5}{36}{Not so simple fix}{subsubsection*.40}{}}
\@writefile{toc}{\contentsline {paragraph}{Checkout new branch}{36}{paragraph*.41}}
\newlabel{14_contributing/how-to-contribute:checkout-new-branch}{{5.2.5}{36}{Checkout new branch}{paragraph*.41}{}}
\@writefile{toc}{\contentsline {paragraph}{Run tests}{36}{paragraph*.42}}
\newlabel{14_contributing/how-to-contribute:run-tests}{{5.2.5}{36}{Run tests}{paragraph*.42}{}}
\@writefile{toc}{\contentsline {paragraph}{Commit}{36}{paragraph*.43}}
\newlabel{14_contributing/how-to-contribute:commit}{{5.2.5}{36}{Commit}{paragraph*.43}{}}
\@writefile{toc}{\contentsline {paragraph}{Create new tests}{36}{paragraph*.44}}
\newlabel{14_contributing/how-to-contribute:create-new-tests}{{5.2.5}{36}{Create new tests}{paragraph*.44}{}}
\@writefile{toc}{\contentsline {paragraph}{Create pull request}{37}{paragraph*.45}}
\newlabel{14_contributing/how-to-contribute:create-pull-request}{{5.2.5}{37}{Create pull request}{paragraph*.45}{}}
\@writefile{toc}{\contentsline {subsection}{\numberline {5.2.6}Release TODO list :}{38}{subsection.5.2.6}}
\newlabel{14_contributing/how-to-contribute:release-todo-list}{{5.2.6}{38}{Release TODO list :}{subsection.5.2.6}{}}
