\BOOKMARK [0][-]{chapter.1}{Introduction}{}% 1
\BOOKMARK [1][-]{section.1.1}{About GEP}{chapter.1}% 2
\BOOKMARK [1][-]{section.1.2}{Quick-Start}{chapter.1}% 3
\BOOKMARK [0][-]{chapter.2}{Installation}{}% 4
\BOOKMARK [1][-]{section.2.1}{Dependencies}{chapter.2}% 5
\BOOKMARK [1][-]{section.2.2}{Installation}{chapter.2}% 6
\BOOKMARK [0][-]{chapter.3}{GEP functionality}{}% 7
\BOOKMARK [1][-]{section.3.1}{Daemons and how they works together}{chapter.3}% 8
\BOOKMARK [1][-]{section.3.2}{Usage}{chapter.3}% 9
\BOOKMARK [1][-]{section.3.3}{Predict only}{chapter.3}% 10
\BOOKMARK [1][-]{section.3.4}{Train and Predict}{chapter.3}% 11
\BOOKMARK [1][-]{section.3.5}{nFold cross-validation}{chapter.3}% 12
\BOOKMARK [1][-]{section.3.6}{Enrichment analysis}{chapter.3}% 13
\BOOKMARK [1][-]{section.3.7}{Accessary programs}{chapter.3}% 14
\BOOKMARK [0][-]{chapter.4}{Configuration}{}% 15
\BOOKMARK [1][-]{section.4.1}{Arbiter}{chapter.4}% 16
\BOOKMARK [1][-]{section.4.2}{Daemons}{chapter.4}% 17
\BOOKMARK [1][-]{section.4.3}{Modules}{chapter.4}% 18
\BOOKMARK [0][-]{chapter.5}{How to contribute}{}% 19
\BOOKMARK [1][-]{section.5.1}{Links to know}{chapter.5}% 20
\BOOKMARK [1][-]{section.5.2}{Getting Help and Ways to Contribute}{chapter.5}% 21
